<svg width="16" height="18" viewBox="0 0 16 18" fill="none" xmlns="http://www.w3.org/2000/svg">
<path d="M6.34517 7.55099H6.34505C6.09684 7.55101 5.8588 7.64808 5.6833 7.82086C5.5078 7.99364 5.40921 8.22796 5.40922 8.47229C5.40922 8.71663 5.50783 8.95095 5.68334 9.12371C5.85886 9.29648 6.0969 9.39354 6.34511 9.39354C6.59332 9.39354 6.83136 9.29648 7.00687 9.12371C7.18239 8.95095 7.28099 8.71663 7.281 8.47229C7.28101 8.22796 7.18242 7.99364 7.00691 7.82086C6.83141 7.64808 6.59338 7.55101 6.34517 7.55099V7.55099ZM9.68229 7.55099C9.47791 7.53395 9.27307 7.57804 9.09457 7.6775C8.91607 7.77696 8.77223 7.92716 8.6819 8.10843C8.59156 8.28969 8.55892 8.49359 8.58826 8.69342C8.6176 8.89325 8.70755 9.07971 8.84633 9.22838C8.98511 9.37705 9.16626 9.48101 9.36607 9.52665C9.56587 9.57229 9.77502 9.55748 9.96613 9.48417C10.1572 9.41085 10.3214 9.28245 10.4372 9.11575C10.5529 8.94906 10.6148 8.75186 10.6148 8.54995C10.6203 8.42407 10.6005 8.29837 10.5565 8.18002C10.5126 8.06168 10.4455 7.95301 10.3588 7.86024C10.2722 7.76747 10.1679 7.69241 10.0518 7.63934C9.93575 7.58628 9.81017 7.55626 9.68229 7.55099ZM14.1256 0H1.87435C1.62761 0.00057383 1.38339 0.0489863 1.15566 0.142473C0.927921 0.23596 0.721123 0.372689 0.547071 0.544854C0.373019 0.717019 0.235122 0.921246 0.141257 1.14587C0.0473905 1.3705 -0.000606616 1.61113 5.78716e-06 1.85402V14.022C-0.000596097 14.2649 0.0474087 14.5055 0.141279 14.7301C0.235149 14.9548 0.373046 15.159 0.547097 15.3311C0.721147 15.5033 0.927942 15.64 1.15567 15.7335C1.3834 15.827 1.62761 15.8754 1.87435 15.876H12.2423L11.7577 14.211L12.928 15.282L14.0343 16.29L16 18V1.85402C16.0006 1.61113 15.9526 1.3705 15.8587 1.14587C15.7649 0.921246 15.627 0.717019 15.4529 0.544854C15.2789 0.372689 15.0721 0.23596 14.8443 0.142473C14.6166 0.0489863 14.3724 0.00057383 14.1256 0V0ZM10.5966 11.754V11.754C10.5966 11.754 10.2674 11.367 9.99306 11.025C10.6558 10.8714 11.242 10.492 11.648 9.95399C11.319 10.1695 10.9663 10.3477 10.5966 10.485C10.1712 10.6637 9.72639 10.7935 9.27084 10.872C8.48781 11.0139 7.68478 11.0108 6.90289 10.863C6.44383 10.7746 5.99394 10.645 5.55881 10.476C5.32948 10.3892 5.10648 10.2869 4.89139 10.17C4.86393 10.152 4.83659 10.143 4.80914 10.125C4.79538 10.1183 4.78299 10.1091 4.77257 10.098C4.60807 10.008 4.51649 9.94501 4.51649 9.94501C4.90782 10.4717 5.47376 10.8474 6.11653 11.007C5.84234 11.3491 5.50402 11.754 5.50402 11.754C4.96092 11.7684 4.42255 11.6512 3.9363 11.4126C3.45004 11.1741 3.03081 10.8215 2.7155 10.386C2.74518 8.56143 3.19534 6.76733 4.032 5.13898C4.76832 4.56972 5.66601 4.23953 6.60112 4.19398L6.69248 4.30202C5.81272 4.51631 4.99175 4.91885 4.288 5.48099C4.288 5.48099 4.48918 5.373 4.8274 5.21999C5.48463 4.92466 6.1851 4.73332 6.90295 4.65304C6.95414 4.64255 7.00617 4.63651 7.05844 4.63498C7.6711 4.55642 8.29111 4.5504 8.90523 4.61704C9.87102 4.72559 10.8059 5.01908 11.6572 5.48099C10.9892 4.94567 10.2132 4.55608 9.38078 4.33799L9.50871 4.19406C10.4438 4.23958 11.3415 4.56978 12.0778 5.13906C12.9146 6.76738 13.3648 8.56147 13.3944 10.386C13.0766 10.8211 12.6555 11.1732 12.1679 11.4116C11.6803 11.65 11.1408 11.7676 10.5966 11.754Z" fill="#85878F"/>
</svg>
