<svg width="141" height="34" viewBox="0 0 141 34" fill="none" xmlns="http://www.w3.org/2000/svg">
<path d="M7.41708 17.1946L5.27166 14.0403L19.0225 11.1124L5.47479 21.1116L24.3096 23.327L20.9435 15.5433L18.4054 17.6808L19.2759 19.7274L13.2169 19.0742L30.7826 5.60156L0 12.3667L4.74159 19.0613L7.41708 17.1946Z" fill="url(#paint0_linear_2692_16231)"/>
<path d="M14.6992 6.13795L15.2409 7.47204L18.2221 6.93024L14.8463 0L10.2246 8.46102L13.7977 7.80974L14.6992 6.13795Z" fill="url(#paint1_linear_2692_16231)"/>
<path d="M21.3535 24.481L23.1139 28.1882L16.0392 25.1359L13.4121 27.1324L28.6487 33.6359L24.6712 24.8261L21.3535 24.481Z" fill="url(#paint2_linear_2692_16231)"/>
<path d="M10.45 23.3274L6.51706 26.2349L7.79 22.9971L4.75082 22.6631L0.15625 34.0001L14.8124 23.7263L10.45 23.3274Z" fill="url(#paint3_linear_2692_16231)"/>
<path fill-rule="evenodd" clip-rule="evenodd" d="M82.8746 4.54293L80.4992 14.1181V14.1162H79.792V4.54102H75.0411V26.9202L79.792 26.8665V17.6612H80.723L82.553 26.8665H87.6575L84.8965 14.8271L87.6894 4.54293H82.8746ZM44.9355 22.7085H40.5702L46.9014 4.54299H36.8203L35.7155 8.6992H40.5622L33.332 28.7368L43.523 28.0201L44.9355 22.7085ZM50.3236 27.6618L51.0549 24.0939V24.0958H54.2334L54.5591 27.4798L59.246 27.3054L56.2013 4.54299H51.2247L45.5468 27.9052L50.3236 27.6618ZM53.9118 20.5527H51.7601L53.2844 12.6389L53.9118 20.5527ZM72.9772 17.7819C72.9412 18.7669 72.166 19.7518 70.8195 19.7518L73.0251 26.9566L68.2383 27.0505L66.1985 19.7518H65.5891L65.3214 27.1214L60.6625 27.2575L61.4896 4.54299H70.318C72.5017 4.54299 73.4227 5.68312 73.3588 7.43643L72.9772 17.7819ZM65.9967 8.45201L65.717 16.1493H67.9965C68.3502 16.1493 68.4501 16.0267 68.462 15.6875L68.7078 8.91382C68.7178 8.63597 68.5959 8.45201 68.2742 8.45201H65.9967ZM93.4991 16.3352V26.8666H88.972V4.54299H93.8847L96.42 13.9649L98.9552 4.54299H103.9V26.9854L99.3748 26.9107V16.3352L96.422 25.2647L93.4991 16.3352ZM116.67 4.54102H105.622L106.03 27.0256L114.82 27.2594L115.615 22.7084H110.737L110.649 17.8432H114.5L114.431 13.9936H110.579L110.483 8.69723H115.555L116.67 4.54102ZM128.379 4.54102L127.494 8.69723H124.38L124.725 27.6445L119.971 27.4414L119.629 8.69723H116.516L117.661 4.54102H128.379ZM131.524 27.999L131.9 24.0938H135.078L135.935 28.2769L140.762 28.6294L134.908 4.54102H129.932L126.827 27.7461L131.524 27.999ZM134.371 20.5527H132.219L132.879 12.6388L134.371 20.5527Z" fill="url(#paint4_linear_2692_16231)"/>
<defs>
<linearGradient id="paint0_linear_2692_16231" x1="-69.2585" y1="42.6226" x2="64.8383" y2="-1.73764" gradientUnits="userSpaceOnUse">
<stop stop-color="#2A4BE6"/>
<stop offset="0.1085" stop-color="#424FDE"/>
<stop offset="0.4213" stop-color="#8359C9"/>
<stop offset="0.6848" stop-color="#B360B9"/>
<stop offset="0.8856" stop-color="#D064B0"/>
<stop offset="1" stop-color="#DB66AC"/>
</linearGradient>
<linearGradient id="paint1_linear_2692_16231" x1="22.3415" y1="-10.2543" x2="6.08246" y2="28.8212" gradientUnits="userSpaceOnUse">
<stop stop-color="#00D6EB"/>
<stop offset="0.229" stop-color="#1BC5DA"/>
<stop offset="0.5481" stop-color="#3BB1C7"/>
<stop offset="0.8166" stop-color="#4FA5BB"/>
<stop offset="1" stop-color="#56A1B7"/>
</linearGradient>
<linearGradient id="paint2_linear_2692_16231" x1="12.7618" y1="21.0886" x2="33.2394" y2="38.4199" gradientUnits="userSpaceOnUse">
<stop stop-color="#5FDAC8"/>
<stop offset="0.1351" stop-color="#77CBD1"/>
<stop offset="0.4059" stop-color="#A2AFE1"/>
<stop offset="0.65" stop-color="#C19BEC"/>
<stop offset="0.8563" stop-color="#D48FF3"/>
<stop offset="1" stop-color="#DB8BF6"/>
</linearGradient>
<linearGradient id="paint3_linear_2692_16231" x1="18.1455" y1="12.2683" x2="1.90936" y2="35.3253" gradientUnits="userSpaceOnUse">
<stop stop-color="#22A5C9"/>
<stop offset="0.1013" stop-color="#2CA7C7"/>
<stop offset="0.2752" stop-color="#48ACC2"/>
<stop offset="0.5009" stop-color="#75B5BA"/>
<stop offset="0.7666" stop-color="#B2C1B0"/>
<stop offset="1" stop-color="#EECDA5"/>
</linearGradient>
<linearGradient id="paint4_linear_2692_16231" x1="16.3196" y1="52.8091" x2="154.803" y2="6.99779" gradientUnits="userSpaceOnUse">
<stop stop-color="#2A4BE6"/>
<stop offset="0.1085" stop-color="#424FDE"/>
<stop offset="0.4213" stop-color="#8359C9"/>
<stop offset="0.6848" stop-color="#B360B9"/>
<stop offset="0.8856" stop-color="#D064B0"/>
<stop offset="1" stop-color="#DB66AC"/>
</linearGradient>
</defs>
</svg>
