<svg width="18" height="15" viewBox="0 0 18 15" fill="none" xmlns="http://www.w3.org/2000/svg">
<path d="M7.06305 9.886L6.7653 14.074C7.19131 14.074 7.37581 13.891 7.59707 13.6712L9.59436 11.7625L13.733 14.7932C14.492 15.2162 15.0267 14.9935 15.2315 14.095L17.9481 1.36605L17.9488 1.3653C18.1896 0.243303 17.5431 -0.195445 16.8035 0.0798037L0.835653 6.19302C-0.254123 6.61602 -0.237622 7.22352 0.650399 7.49877L4.73275 8.76851L14.2152 2.83529C14.6615 2.53979 15.0672 2.70329 14.7335 2.99879L7.06305 9.886Z" fill="#85878F"/>
</svg>
